<?xml version="1.0" encoding="utf-8"?>


<!-- The icon can be used freely in both personal and commercial projects with no attribution required, but always appreciated. 
You may NOT sub-license, resell, rent, redistribute or otherwise transfer the icon without express written permission from iconmonstr.com -->


<!DOCTYPE svg PUBLIC "-//W3C//DTD SVG 1.1//EN" "http://www.w3.org/Graphics/SVG/1.1/DTD/svg11.dtd">

<svg version="1.1" xmlns="http://www.w3.org/2000/svg" xmlns:xlink="http://www.w3.org/1999/xlink" x="0px" y="0px"

	 width="512px" height="512px" viewBox="0 0 512 512" fill="#e8e84e" enable-background="new 0 0 512 512" xml:space="preserve">

<polygon id="star-2-icon" points="256,60.082 318.979,190.002 462.001,209.75 357.9,309.793 383.315,451.918 256,383.828 

	128.685,451.918 154.1,309.793 49.999,209.75 193.021,190.002 "/>

</svg>